hw_01/simulation/qsim/hw_01.msim.vcd
$comment
	File created using the following command:
		vcd file hw_01.msim.vcd -direction
$end
$date
	Tue Oct 17 21:47:39 2023
$end
$version
	ModelSim Version 2020.1
$end
$timescale
	1ps
$end

$scope module hw_01_vlg_vec_tst $end
$var reg 4 ! A [3:0] $end
$var reg 4 " B [3:0] $end
$var wire 1 # S [7] $end
$var wire 1 $ S [6] $end
$var wire 1 % S [5] $end
$var wire 1 & S [4] $end
$var wire 1 ' S [3] $end
$var wire 1 ( S [2] $end
$var wire 1 ) S [1] $end
$var wire 1 * S [0] $end

$scope module i1 $end
$var wire 1 + gnd $end
$var wire 1 , vcc $end
$var wire 1 - unknown $end
$var tri1 1 . devclrn $end
$var tri1 1 / devpor $end
$var tri1 1 0 devoe $end
$var wire 1 1 ~QUARTUS_CREATED_GND~I_combout $end
$var wire 1 2 B[3]~input_o $end
$var wire 1 3 A[1]~input_o $end
$var wire 1 4 B[0]~input_o $end
$var wire 1 5 B[2]~input_o $end
$var wire 1 6 A[2]~input_o $end
$var wire 1 7 B[1]~input_o $end
$var wire 1 8 A[0]~input_o $end
$var wire 1 9 inst24|inst|CARRY~combout $end
$var wire 1 : A[3]~input_o $end
$var wire 1 ; inst|inst4|adder2|SUM~combout $end
$var wire 1 < inst|inst3|adder2|SUM~combout $end
$var wire 1 = inst24|inst3|CARRY~combout $end
$var wire 1 > inst24|inst4|adder1|CARRY~0_combout $end
$var wire 1 ? inst24|inst4|adder1|SUM~combout $end
$var wire 1 @ inst24|inst4|adder2|SUM~combout $end
$var wire 1 A inst24|inst4|CARRY~combout $end
$var wire 1 B inst21~combout $end
$var wire 1 C inst|inst2|adder2|SUM~combout $end
$var wire 1 D inst25|inst|CARRY~combout $end
$var wire 1 E inst24|inst3|adder2|SUM~combout $end
$var wire 1 F inst25|inst2|CARRY~combout $end
$var wire 1 G inst25|inst4|CARRY~combout $end
$var wire 1 H inst25|inst4|adder2|SUM~combout $end
$var wire 1 I inst22~combout $end
$var wire 1 J inst25|inst3|adder2|SUM~combout $end
$var wire 1 K inst25|inst2|adder2|SUM~combout $end
$var wire 1 L inst25|inst|SUM~combout $end
$var wire 1 M inst24|inst|SUM~combout $end
$var wire 1 N inst|inst|SUM~combout $end
$var wire 1 O inst8~combout $end
$upscope $end
$upscope $end
$enddefinitions $end
#0
$dumpvars
b0 !
b0 "
0*
0)
0(
0'
0&
0%
0$
0#
0+
1,
x-
1.
1/
10
01
02
03
04
05
06
07
08
09
0:
0;
0<
0=
0>
0?
0@
0A
0B
0C
0D
0E
0F
0G
0H
0I
0J
0K
0L
0M
0N
0O
$end
#10000
b1 !
18
#20000
b11 !
b10 !
08
13
#30000
b11 !
18
#40000
b111 !
b101 !
b100 !
08
03
16
#50000
b101 !
18
#60000
b111 !
b110 !
08
13
#70000
b111 !
18
#80000
b1111 !
b1011 !
b1001 !
b1000 !
08
03
06
1:
#90000
b1001 !
18
#100000
b1011 !
b1010 !
08
13
#110000
b1011 !
18
#120000
b1111 !
b1101 !
b1100 !
08
03
16
#130000
b1101 !
18
#140000
b1111 !
b1110 !
08
13
#150000
b1111 !
18
#160000
b1 "
b111 !
b11 !
b1 !
b0 !
08
03
06
0:
14
#170000
b1 !
18
1O
1*
#180000
b11 !
b10 !
08
13
1N
0O
0*
1)
#190000
b11 !
18
1O
1*
#200000
b111 !
b101 !
b100 !
08
03
16
1C
0N
0O
0*
0)
1M
1(
#210000
b101 !
18
1O
1*
#220000
b111 !
b110 !
08
13
1N
0O
0*
1)
#230000
b111 !
18
1O
1*
#240000
b1111 !
b1011 !
b1001 !
b1000 !
08
03
06
1:
1<
0C
0N
0O
0*
0)
0M
1L
1'
0(
#250000
b1001 !
18
1O
1*
#260000
b1011 !
b1010 !
08
13
1N
0O
0*
1)
#270000
b1011 !
18
1O
1*
#280000
b1111 !
b1101 !
b1100 !
08
03
16
1C
0N
0O
0*
0)
1M
1(
#290000
b1101 !
18
1O
1*
#300000
b1111 !
b1110 !
08
13
1N
0O
0*
1)
#310000
b1111 !
18
1O
1*
#320000
b11 "
b10 "
b111 !
b11 !
b1 !
b0 !
08
03
06
0:
04
17
0C
0<
0N
0O
0*
0)
0L
0M
0(
0'
#330000
b1 !
18
1N
1)
#340000
b11 !
b10 !
08
13
1C
0N
0)
1M
1(
#350000
b11 !
18
1N
1)
#360000
b111 !
b101 !
b100 !
08
03
16
0C
1<
0N
0)
1L
0M
0(
1'
#370000
b101 !
18
1N
1)
#380000
b111 !
b110 !
08
13
1C
0N
0)
1M
1(
#390000
b111 !
18
1N
1)
#400000
b1111 !
b1011 !
b1001 !
b1000 !
08
03
06
1:
0<
1;
0C
0N
0)
1E
0M
0L
0'
0(
1K
1&
#410000
b1001 !
18
1N
1)
#420000
b1011 !
b1010 !
08
13
1C
0N
0)
1M
1(
#430000
b1011 !
18
1N
1)
#440000
b1111 !
b1101 !
b1100 !
08
03
16
0C
1<
0N
0)
1L
0M
0(
1'
#450000
b1101 !
18
1N
1)
#460000
b1111 !
b1110 !
08
13
1C
0N
0)
1M
1(
#470000
b1111 !
18
1N
1)
#480000
b11 "
b111 !
b11 !
b1 !
b0 !
08
03
06
0:
14
0C
0<
0;
0N
0)
0E
0L
0M
0(
0'
0K
0&
#490000
b1 !
18
1O
1N
1)
1*
#500000
b11 !
b10 !
08
13
1C
0O
0*
1M
1(
#510000
b11 !
18
0C
1<
1O
0N
0)
1*
1L
0M
0(
1'
#520000
b111 !
b101 !
b100 !
08
03
16
1C
0O
0*
1M
1(
#530000
b101 !
18
1O
1N
1)
1*
#540000
b111 !
b110 !
08
13
0C
0<
1;
0O
0*
1E
0L
0M
0(
0'
1K
1&
#550000
b111 !
18
1C
1O
0N
0)
1*
1M
1(
#560000
b1111 !
b1011 !
b1001 !
b1000 !
08
03
06
1:
1<
0C
0O
0*
0M
1L
1'
0(
#570000
b1001 !
18
1O
1N
1)
1*
#580000
b1011 !
b1010 !
08
13
1C
0O
0*
1M
1(
#590000
b1011 !
18
0C
1>
0<
0;
1O
0N
0)
1*
0E
1?
0L
0M
0(
0'
1@
1J
0K
0&
1%
#600000
b1111 !
b1101 !
b1100 !
08
03
16
1C
0O
0*
1M
1(
#610000
b1101 !
18
1O
1N
1)
1*
#620000
b1111 !
b1110 !
08
13
0C
1<
0O
0*
1L
0M
0(
1'
#630000
b1111 !
18
1C
1O
0N
0)
1*
1M
1(
#640000
b111 "
b101 "
b100 "
b111 !
b11 !
b1 !
b0 !
08
03
06
0:
04
07
15
1A
0C
0>
0<
0O
0*
0A
0?
0L
0M
1H
1$
0(
0'
0@
0J
0H
0$
0%
#650000
b1 !
18
1M
1(
#660000
b11 !
b10 !
08
13
1L
0M
0(
1'
#670000
b11 !
18
1M
1(
#680000
b111 !
b101 !
b100 !
08
03
16
1E
0L
0M
0(
0'
1K
1&
#690000
b101 !
18
1M
1(
#700000
b111 !
b110 !
08
13
1L
0M
0(
1'
#710000
b111 !
18
1M
1(
#720000
b1111 !
b1011 !
b1001 !
b1000 !
08
03
06
1:
1?
0E
0L
0M
0(
0'
1@
0K
1J
1%
0&
#730000
b1001 !
18
1M
1(
#740000
b1011 !
b1010 !
08
13
1L
0M
0(
1'
#750000
b1011 !
18
1M
1(
#760000
b1111 !
b1101 !
b1100 !
08
03
16
1E
0L
0M
0(
0'
1K
1&
#770000
b1101 !
18
1M
1(
#780000
b1111 !
b1110 !
08
13
1L
0M
0(
1'
#790000
b1111 !
18
1M
1(
#800000
b101 "
b111 !
b11 !
b1 !
b0 !
08
03
06
0:
14
0?
0E
0L
0M
0(
0'
0@
0K
0J
0%
0&
#810000
b1 !
18
1O
1M
1(
1*
#820000
b11 !
b10 !
08
13
1N
1L
0O
0M
0(
0*
1'
1)
#830000
b11 !
18
1O
1M
1(
1*
#840000
b111 !
b101 !
b100 !
08
03
16
1E
1C
0N
0L
0O
0M
0(
0*
0'
0)
1M
1K
1&
1(
#850000
b101 !
18
19
1O
0M
1L
1'
0(
1*
#860000
b111 !
b110 !
08
13
0E
1=
09
1N
0O
1M
1(
0*
1)
1E
0=
1@
1J
0K
0&
1%
0@
0J
1K
1&
0%
#870000
b111 !
18
19
1O
0M
0L
0'
0(
1*
0E
1=
1@
1J
0K
0&
1%
#880000
b1111 !
b1011 !
b1001 !
b1000 !
08
03
06
1:
1A
1?
1<
0C
0=
09
0N
0O
1M
1(
0*
0)
0A
0M
1L
1H
1$
1'
0(
0H
0$
#890000
b1001 !
18
1O
1M
1(
1*
#900000
b1011 !
b1010 !
08
13
1E
1N
0L
0O
0M
0(
0*
0'
1)
1K
1&
#910000
b1011 !
18
1O
1M
1(
1*
#920000
b1111 !
b1101 !
b1100 !
08
03
16
1C
0N
1L
0O
0M
0(
0*
1'
0)
1M
1(
#930000
b1101 !
18
19
1O
0M
0L
0'
0(
1*
0E
1=
1A
0@
0J
0K
0&
0%
1H
1$
#940000
b1111 !
b1110 !
08
13
09
1N
0O
1M
1(
0*
1)
#950000
b1111 !
18
19
1O
0M
1L
1'
0(
1*
#960000
b111 "
b110 "
b111 !
b11 !
b1 !
b0 !
08
03
06
0:
04
17
0C
0<
09
0A
0?
1E
0=
0N
0O
1M
1(
0*
0)
0E
1K
0H
0L
0M
0(
0'
0$
1&
0K
0&
#970000
b1 !
18
1N
1M
1(
1)
#980000
b11 !
b10 !
08
13
1C
0N
1L
0M
0(
1'
0)
1M
1(
#990000
b11 !
18
19
1N
0M
0L
0'
0(
1)
1E
1K
1&
#1000000
b111 !
b101 !
b100 !
08
03
16
0C
1<
09
0N
1M
1(
0)
1L
0M
0(
1'
#1010000
b101 !
18
1N
1M
1(
1)
#1020000
b111 !
b110 !
08
13
0E
1C
1=
0N
0L
0M
0(
0'
0)
1@
1J
1M
0K
0&
1(
1%
#1030000
b111 !
18
19
1N
0M
1L
1'
0(
1)
#1040000
b1111 !
b1011 !
b1001 !
b1000 !
08
03
06
1:
1A
1?
0<
1;
1E
0C
0=
09
0N
1M
1(
0)
0A
0M
0L
1K
1H
1$
1&
0'
0(
0H
0$
#1050000
b1001 !
18
1N
1M
1(
1)
#1060000
b1011 !
b1010 !
08
13
1C
0N
1L
0M
0(
1'
0)
1M
1(
#1070000
b1011 !
18
19
1N
0M
0L
0'
0(
1)
0E
1=
1A
0@
0J
0K
0&
0%
1H
1$
#1080000
b1111 !
b1101 !
b1100 !
08
03
16
0C
1<
09
0N
1M
1(
0)
1L
0M
0(
1'
#1090000
b1101 !
18
1N
1M
1(
1)
#1100000
b1111 !
b1110 !
08
13
1E
1C
0N
0L
0M
0(
0'
0)
1M
1K
1&
1(
#1110000
b1111 !
18
19
1N
0M
1L
1'
0(
1)
#1120000
b111 "
b111 !
b11 !
b1 !
b0 !
08
03
06
0:
14
0C
0<
0;
09
0A
0?
0E
0N
1M
1(
0)
1@
0=
0K
1J
0H
0L
0M
0(
0'
0$
1%
0&
0@
0J
0%
#1130000
b1 !
18
1O
1N
1M
1(
1)
1*
#1140000
b11 !
b10 !
08
13
1C
1L
0O
0M
0(
0*
1'
1M
1(
#1150000
b11 !
18
0C
1<
1O
0N
0M
0L
0'
0(
0)
1*
1E
1M
1(
1K
1&
#1160000
b111 !
b101 !
b100 !
08
03
16
1C
1L
0O
0M
0(
0*
1'
1M
1(
#1170000
b101 !
18
19
1O
1N
0M
0L
0'
0(
1)
1*
0E
1=
1@
1J
0K
0&
1%
#1180000
b111 !
b110 !
08
13
0C
0<
1;
09
0O
1M
1(
0*
1L
0M
0(
1'
#1190000
b111 !
18
1C
19
1O
0N
1M
1(
0)
1*
1E
0M
0L
0'
0(
1K
1&
#1200000
b1111 !
b1011 !
b1001 !
b1000 !
08
03
06
1:
1A
1?
1<
0C
0=
09
0O
1M
1(
0*
0A
0M
1L
1H
1$
1'
0(
0H
0$
#1210000
b1001 !
18
1O
1N
1M
1(
1)
1*
#1220000
b1011 !
b1010 !
08
13
0E
1C
1=
0L
0O
0M
0(
0*
0'
1A
0@
0J
1M
0K
0&
1(
0%
1H
1$
#1230000
b1011 !
18
0C
1>
0<
0;
1O
0N
0M
1L
1'
0(
0)
1*
0=
0?
1M
1(
#1240000
b1111 !
b1101 !
b1100 !
08
03
16
1E
1C
0L
0O
0M
0(
0*
0'
1M
1K
1&
1(
#1250000
b1101 !
18
19
1O
1N
0M
1L
1'
0(
1)
1*
#1260000
b1111 !
b1110 !
08
13
0E
0C
1=
1<
09
0O
1M
1(
0*
1@
0L
1J
0M
0K
0&
0(
1%
0'
#1270000
b1111 !
18
1C
19
1O
0N
1M
1(
0)
1*
0M
1L
1'
0(
#1280000
b1111 "
b1011 "
b1001 "
b1000 "
b111 !
b11 !
b1 !
b0 !
08
03
06
0:
04
07
05
12
1E
1?
0=
09
0C
0>
0<
1M
0O
0*
1(
0E
0A
0?
0L
0M
1K
1&
0(
0'
0@
0J
0H
0K
0&
0$
0%
#1290000
b1 !
18
1L
1'
#1300000
b11 !
b10 !
08
13
1B
0L
0'
1K
1&
#1310000
b11 !
18
1L
1'
#1320000
b111 !
b101 !
b100 !
08
03
16
1I
0B
0L
0'
0K
1J
1%
0&
#1330000
b101 !
18
1L
1'
#1340000
b111 !
b110 !
08
13
1B
0L
0'
1K
1&
#1350000
b111 !
18
1L
1'
#1360000
b1111 !
b1011 !
b1001 !
b1000 !
08
03
06
1:
0I
0B
1H
0L
0'
1$
0K
0J
0%
0&
#1370000
b1001 !
18
1L
1'
#1380000
b1011 !
b1010 !
08
13
1B
0L
0'
1K
1&
#1390000
b1011 !
18
1L
1'
#1400000
b1111 !
b1101 !
b1100 !
08
03
16
1I
0B
0L
0'
0K
1J
1%
0&
#1410000
b1101 !
18
1L
1'
#1420000
b1111 !
b1110 !
08
13
1B
0L
0'
1K
1&
#1430000
b1111 !
18
1L
1'
#1440000
b1001 "
b111 !
b11 !
b1 !
b0 !
08
03
06
0:
14
0I
0B
0H
0L
0'
0$
0K
0J
0%
0&
#1450000
b1 !
18
1O
1L
1'
1*
#1460000
b11 !
b10 !
08
13
1B
1N
0L
0O
0*
0'
1)
1K
1&
#1470000
b11 !
18
1O
1L
1'
1*
#1480000
b111 !
b101 !
b100 !
08
03
16
1I
1C
0B
0N
0L
0O
0*
0'
0)
0K
1J
1M
1(
1%
0&
#1490000
b101 !
18
1O
1L
1'
1*
#1500000
b111 !
b110 !
08
13
1B
1N
0L
0O
0*
0'
1)
1K
1&
#1510000
b111 !
18
1O
1L
1'
1*
#1520000
b1111 !
b1011 !
b1001 !
b1000 !
08
03
06
1:
1<
0I
0C
0B
1H
0N
0L
0O
0*
0'
0)
1$
0K
0J
0M
1L
1'
0(
0%
0&
#1530000
b1001 !
18
1D
1O
0L
0'
1*
1K
1&
#1540000
b1011 !
b1010 !
08
13
0D
1B
1N
1L
0O
0*
1'
1)
#1550000
b1011 !
18
1D
1O
0L
0'
1*
1F
0K
1J
1%
0&
#1560000
b1111 !
b1101 !
b1100 !
08
03
16
1I
1C
0D
0B
0H
1G
0N
1L
0O
0*
1'
0)
1#
0$
0F
1M
1(
1H
0G
0#
1$
#1570000
b1101 !
18
1D
1O
0L
0'
1*
1K
1&
#1580000
b1111 !
b1110 !
08
13
0D
1B
1N
1L
0O
0*
1'
1)
#1590000
b1111 !
18
1D
1O
0L
0'
1*
1F
0K
0J
0%
0&
0H
1G
1#
0$
#1600000
b1011 "
b1010 "
b111 !
b11 !
b1 !
b0 !
08
03
06
0:
04
17
0C
0<
0I
0D
0B
0N
0O
0G
1L
1'
0#
0*
0)
0F
0L
0M
0(
0'
#1610000
b1 !
18
1N
1L
1'
1)
#1620000
b11 !
b10 !
08
13
1C
1B
0N
0L
0'
0)
1K
1M
1(
1&
#1630000
b11 !
18
1N
1L
1'
1)
#1640000
b111 !
b101 !
b100 !
08
03
16
1I
0C
1<
0B
0N
0L
0'
0)
0K
1J
1L
0M
0(
1'
1%
0&
#1650000
b101 !
18
1D
1N
0L
0'
1)
1K
1&
#1660000
b111 !
b110 !
08
13
0D
1C
1B
0N
1L
1'
0)
1M
1(
#1670000
b111 !
18
1D
1N
0L
0'
1)
1F
0K
0J
0%
0&
1H
1$
#1680000
b1111 !
b1011 !
b1001 !
b1000 !
08
03
06
1:
0<
1;
0I
0C
0D
0B
0N
1L
1'
0)
0F
1E
0M
0L
0'
0(
1K
1&
#1690000
b1001 !
18
1N
1L
1'
1)
#1700000
b1011 !
b1010 !
08
13
1C
1B
0N
0L
0'
0)
1F
0K
1J
1M
1(
1%
0&
#1710000
b1011 !
18
1N
1L
1'
1)
#1720000
b1111 !
b1101 !
b1100 !
08
03
16
1I
0C
1<
0B
0H
1G
0N
0L
0'
0)
1#
0$
0F
1K
1L
0M
0(
1'
1&
1H
0G
0#
1$
#1730000
b1101 !
18
1D
1N
0L
0'
1)
1F
0K
0J
0%
0&
0H
1G
1#
0$
#1740000
b1111 !
b1110 !
08
13
0D
1C
1B
0N
1L
1'
0)
1M
1(
#1750000
b1111 !
18
1D
1N
0L
0'
1)
1K
1&
#1760000
b1011 "
b111 !
b11 !
b1 !
b0 !
08
03
06
0:
14
0C
0<
0;
0I
0D
0B
0N
0G
1L
1'
0#
0)
0F
0E
0L
0M
0(
0'
0K
0&
#1770000
b1 !
18
1O
1N
1L
1'
1)
1*
#1780000
b11 !
b10 !
08
13
1C
1B
0L
0O
0*
0'
1K
1M
1(
1&
#1790000
b11 !
18
0C
1<
1O
0N
1L
1'
0)
1*
1D
0L
0M
0(
0'
1F
0K
1J
1%
0&
#1800000
b111 !
b101 !
b100 !
08
03
16
1I
1C
0D
0B
1H
1L
0O
0*
1'
1$
0F
1M
1(
0H
0$
#1810000
b101 !
18
1D
1O
1N
0L
0'
1)
1*
1K
1&
#1820000
b111 !
b110 !
08
13
0D
0C
1B
0<
1;
1L
0O
0*
1'
1E
0L
0M
0(
0'
1F
0K
0J
0%
0&
1H
1$
#1830000
b111 !
18
1C
1O
0N
1L
1'
0)
1*
1M
1(
#1840000
b1111 !
b1011 !
b1001 !
b1000 !
08
03
06
1:
1<
0I
0C
0B
0L
0O
0*
0'
0F
1K
0M
1L
1'
0(
1&
#1850000
b1001 !
18
1D
1O
1N
0L
0'
1)
1*
1F
0K
1J
1%
0&
#1860000
b1011 !
b1010 !
08
13
0D
1C
1B
1L
0O
0*
1'
1M
1(
#1870000
b1011 !
18
1D
0C
1>
0<
0;
1O
0N
0L
0'
0)
1*
0E
0D
1?
1L
0M
1K
1&
0(
1'
1@
0F
#1880000
b1111 !
b1101 !
b1100 !
08
03
16
1I
1C
0B
0H
1G
0L
0O
0*
0'
1#
0$
0K
0J
1M
1(
0%
0&
#1890000
b1101 !
18
1O
1N
1L
1'
1)
1*
#1900000
b1111 !
b1110 !
08
13
0C
1B
1<
0L
0O
0*
0'
1L
1K
0M
0(
1&
1'
#1910000
b1111 !
18
1D
1C
1O
0N
0L
0'
0)
1*
1F
1M
0K
1J
1%
0&
1(
#1920000
b1111 "
b1101 "
b1100 "
b111 !
b11 !
b1 !
b0 !
08
03
06
0:
04
07
15
0D
1A
0C
0>
0<
0I
0B
1L
0O
1H
0G
0#
1$
0*
1'
0F
0A
0?
0L
0M
0H
1G
1#
0$
0(
0'
0@
0J
0G
0#
0%
#1930000
b1 !
18
1M
1L
1'
1(
#1940000
b11 !
b10 !
08
13
1B
0M
0(
1K
1&
#1950000
b11 !
18
1D
1M
0L
0'
1(
1F
0K
1J
1%
0&
#1960000
b111 !
b101 !
b100 !
08
03
16
1I
1E
0D
0B
1H
0M
0(
1$
0F
1K
1&
0H
0$
#1970000
b101 !
18
1M
1L
1'
1(
#1980000
b111 !
b110 !
08
13
1B
0M
0(
1F
0K
0J
0%
0&
1H
1$
#1990000
b111 !
18
1D
1M
0L
0'
1(
1K
1&
#2000000
b1111 !
b1011 !
b1001 !
b1000 !
08
03
06
1:
1?
0I
0E
0D
0B
0M
0(
0F
1@
0K
1J
1%
0&
#2010000
b1001 !
18
1M
1L
1'
1(
#2020000
b1011 !
b1010 !
08
13
1B
0M
0(
1K
1&
#2030000
b1011 !
18
1D
1M
0L
0'
1(
1F
0K
0J
0%
0&
0H
1G
1#
0$
#2040000
b1111 !
b1101 !
b1100 !
08
03
16
1I
1E
0D
0B
0M
0(
0F
1K
1&
#2050000
b1101 !
18
1M
1L
1'
1(
#2060000
b1111 !
b1110 !
08
13
1B
0M
0(
1F
0K
1J
1%
0&
#2070000
b1111 !
18
1D
1M
0L
0'
1(
1K
1&
#2080000
b1101 "
b111 !
b11 !
b1 !
b0 !
08
03
06
0:
14
0?
0I
0E
0D
0B
1H
0G
0M
0(
0#
1$
0F
0@
0K
0J
0%
0&
0H
0$
#2090000
b1 !
18
1O
1M
1L
1'
1(
1*
#2100000
b11 !
b10 !
08
13
1B
1N
0O
0M
0(
0*
1)
1K
1&
#2110000
b11 !
18
1D
1O
1M
0L
0'
1(
1*
1F
0K
1J
1%
0&
#2120000
b111 !
b101 !
b100 !
08
03
16
1I
1E
1C
0D
0B
1H
0N
0O
0M
0(
0*
0)
1$
0F
1K
1M
1(
1&
0H
0$
#2130000
b101 !
18
1D
19
1O
0M
0(
1*
1F
0K
0J
0%
0&
1H
1$
#2140000
b111 !
b110 !
08
13
0E
0D
1B
1=
09
1N
1L
0O
1M
1(
0*
1'
1)
1E
0=
1@
0F
1K
1&
0@
1F
0K
0&
#2150000
b111 !
18
19
1O
0M
0(
1*
0E
1=
1@
0F
1K
1&
#2160000
b1111 !
b1011 !
b1001 !
b1000 !
08
03
06
1:
1A
1?
1<
0I
0C
0=
09
0B
0N
0L
0O
1M
1(
0*
0'
0)
0A
0K
1J
0M
1L
0H
1G
1#
0$
1'
0(
1%
0&
1H
0G
0#
1$
#2170000
b1001 !
18
1D
1O
1M
0L
0'
1(
1*
1K
1&
#2180000
b1011 !
b1010 !
08
13
1E
0D
1B
1N
0O
0M
0(
0*
1)
1F
0K
0J
0%
0&
0H
1G
1#
0$
#2190000
b1011 !
18
1O
1M
1L
1'
1(
1*
#2200000
b1111 !
b1101 !
b1100 !
08
03
16
1I
1C
0B
0N
0O
0M
0(
0*
0)
0F
1K
1M
1(
1&
#2210000
b1101 !
18
19
1O
0M
0(
1*
0E
1=
1A
0@
1J
0K
0&
1%
#2220000
b1111 !
b1110 !
08
13
1B
09
1N
0L
0O
1M
1(
0*
0'
1)
1K
1&
#2230000
b1111 !
18
1D
19
1O
0M
0(
1*
1F
0K
0J
0%
0&
1H
1$
#2240000
b1111 "
b1110 "
b111 !
b11 !
b1 !
b0 !
08
03
06
0:
04
17
0C
0<
09
0A
0?
0I
1E
0=
0D
0B
0N
0O
0G
1L
1M
1(
1'
0#
0*
0)
0F
0E
1K
0H
0L
0M
0(
0'
0$
1&
0K
0&
#2250000
b1 !
18
1N
1M
1L
1'
1(
1)
#2260000
b11 !
b10 !
08
13
1C
1B
0N
0M
0(
0)
1K
1M
1(
1&
#2270000
b11 !
18
19
1N
0M
0(
1)
1E
1F
0K
1J
1%
0&
#2280000
b111 !
b101 !
b100 !
08
03
16
1I
0C
1<
09
0B
1H
0N
0L
1M
1(
0'
0)
1$
0F
1K
1L
0M
0(
1'
1&
0H
0$
#2290000
b101 !
18
1D
1N
1M
0L
0'
1(
1)
1F
0K
0J
0%
0&
1H
1$
#2300000
b111 !
b110 !
08
13
0E
0D
1C
1B
1=
0N
0M
0(
0)
1@
0F
1K
1M
1(
1&
#2310000
b111 !
18
1D
19
1N
0M
0(
1)
1F
0K
1J
1%
0&
#2320000
b1111 !
b1011 !
b1001 !
b1000 !
08
03
06
1:
1A
1?
0<
1;
0I
1E
0C
0=
09
0D
0B
0H
1G
0N
1L
1M
1(
1'
0)
1#
0$
0F
0A
1K
0M
0L
1H
1$
0'
0(
1&
0G
0#
#2330000
b1001 !
18
1N
1M
1L
1'
1(
1)
#2340000
b1011 !
b1010 !
08
13
1C
1B
0N
0M
0(
0)
1F
0K
0J
1M
1(
0%
0&
0H
1G
1#
0$
#2350000
b1011 !
18
19
1N
0M
0(
1)
0E
1=
1A
0@
0F
1K
1&
#2360000
b1111 !
b1101 !
b1100 !
08
03
16
1I
0C
1<
09
0B
0N
0L
1M
1(
0'
0)
0K
1J
1L
0M
0(
1'
1%
0&
#2370000
b1101 !
18
1D
1N
1M
0L
0'
1(
1)
1K
1&
#2380000
b1111 !
b1110 !
08
13
1E
0D
1C
1B
0N
0M
0(
0)
1F
0K
0J
1M
1(
0%
0&
1H
1$
#2390000
b1111 !
18
1D
19
1N
0M
0(
1)
1K
1&
#2400000
b1111 "
b111 !
b11 !
b1 !
b0 !
08
03
06
0:
14
0C
0<
0;
09
0A
0?
0I
0E
0D
0B
0N
0G
1L
1M
1(
1'
0#
0)
0F
1@
0=
0K
1J
0H
0L
0M
0(
0'
0$
1%
0&
0@
0J
0%
#2410000
b1 !
18
1O
1N
1M
1L
1'
1(
1)
1*
#2420000
b11 !
b10 !
08
13
1C
1B
0O
0M
0(
0*
1K
1M
1(
1&
#2430000
b11 !
18
0C
1<
1O
0N
0M
0(
0)
1*
1E
1M
1(
1F
0K
1J
1%
0&
#2440000
b111 !
b101 !
b100 !
08
03
16
1I
1C
0B
1H
0O
0M
0(
0*
1$
0F
1K
1M
1(
1&
0H
0$
#2450000
b101 !
18
19
1O
1N
0M
0(
1)
1*
0E
1=
1@
0J
0K
0&
0%
1H
1$
#2460000
b111 !
b110 !
08
13
0C
1B
0<
1;
09
0L
0O
1M
1(
0*
0'
1L
1K
0M
0(
1&
1'
#2470000
b111 !
18
1D
1C
19
1O
0N
1M
0L
0'
1(
0)
1*
1E
0D
1F
0M
1L
0K
1J
1%
0&
1'
0(
#2480000
b1111 !
b1011 !
b1001 !
b1000 !
08
03
06
1:
1A
1?
1<
0I
0C
0=
09
0B
0H
1G
0L
0O
1M
1(
0*
0'
1#
0$
0F
0A
1K
0M
1L
1H
1$
1'
0(
1&
0G
0#
#2490000
b1001 !
18
1D
1O
1N
1M
0L
0'
1(
1)
1*
1F
0K
0J
0%
0&
0H
1G
1#
0$
#2500000
b1011 !
b1010 !
08
13
0E
0D
1C
1B
1=
0O
0M
0(
0*
1A
0@
0F
1K
1M
1(
1&
#2510000
b1011 !
18
1D
0C
1>
0<
0;
1O
0N
0M
0(
0)
1*
0=
0?
1F
1M
0K
1J
1%
0&
1(
#2520000
b1111 !
b1101 !
b1100 !
08
03
16
1I
1E
1C
0D
0B
1H
0O
0M
0(
0*
1$
0F
1K
1M
1(
1&
0H
0$
#2530000
b1101 !
18
1D
19
1O
1N
0M
0(
1)
1*
1F
0K
0J
0%
0&
1H
1$
#2540000
b1111 !
b1110 !
08
13
0E
0D
0C
1B
1=
1<
09
1L
0O
1M
1(
0*
1'
1@
0F
0L
1K
0M
0(
1&
0'
#2550000
b1111 !
18
1C
19
1O
0N
1M
1L
1'
1(
0)
1*
1D
0M
0L
0'
0(
1F
0K
1J
1%
0&
#2560000
b111 "
b11 "
b1 "
b0 "
b111 !
b11 !
b1 !
b0 !
08
03
06
0:
04
07
05
02
0I
0D
0B
1E
1?
0=
09
0C
0>
0<
1L
0H
1M
0O
0*
1(
0$
1'
0E
0A
0?
0F
0L
0M
1K
1&
0(
0'
0@
0G
0J
0K
0&
0%
0#
#2570000
b1 !
18
#2580000
b11 !
b10 !
08
13
#2590000
b11 !
18
#2600000
b111 !
b101 !
b100 !
08
03
16
#2610000
b101 !
18
#2620000
b111 !
b110 !
08
13
#2630000
b111 !
18
#2640000
b1111 !
b1011 !
b1001 !
b1000 !
08
03
06
1:
#2650000
b1001 !
18
#2660000
b1011 !
b1010 !
08
13
#2670000
b1011 !
18
#2680000
b1111 !
b1101 !
b1100 !
08
03
16
#2690000
b1101 !
18
#2700000
b1111 !
b1110 !
08
13
#2710000
b1111 !
18
#2720000
b1 "
b111 !
b11 !
b1 !
b0 !
08
03
06
0:
14
#2730000
b1 !
18
1O
1*
#2740000
b11 !
b10 !
08
13
1N
0O
0*
1)
#2750000
b11 !
18
1O
1*
#2760000
b111 !
b101 !
b100 !
08
03
16
1C
0N
0O
0*
0)
1M
1(
#2770000
b101 !
18
1O
1*
#2780000
b111 !
b110 !
08
13
1N
0O
0*
1)
#2790000
b111 !
18
1O
1*
#2800000
b1111 !
b1011 !
b1001 !
b1000 !
08
03
06
1:
1<
0C
0N
0O
0*
0)
0M
1L
1'
0(
#2810000
b1001 !
18
1O
1*
#2820000
b1011 !
b1010 !
08
13
1N
0O
0*
1)
#2830000
b1011 !
18
1O
1*
#2840000
b1111 !
b1101 !
b1100 !
08
03
16
1C
0N
0O
0*
0)
1M
1(
#2850000
b1101 !
18
1O
1*
#2860000
b1111 !
b1110 !
08
13
1N
0O
0*
1)
#2870000
b1111 !
18
1O
1*
#2880000
b11 "
b10 "
b111 !
b11 !
b1 !
b0 !
08
03
06
0:
04
17
0C
0<
0N
0O
0*
0)
0L
0M
0(
0'
#2890000
b1 !
18
1N
1)
#2900000
b11 !
b10 !
08
13
1C
0N
0)
1M
1(
#2910000
b11 !
18
1N
1)
#2920000
b111 !
b101 !
b100 !
08
03
16
0C
1<
0N
0)
1L
0M
0(
1'
#2930000
b101 !
18
1N
1)
#2940000
b111 !
b110 !
08
13
1C
0N
0)
1M
1(
#2950000
b111 !
18
1N
1)
#2960000
b1111 !
b1011 !
b1001 !
b1000 !
08
03
06
1:
0<
1;
0C
0N
0)
1E
0M
0L
0'
0(
1K
1&
#2970000
b1001 !
18
1N
1)
#2980000
b1011 !
b1010 !
08
13
1C
0N
0)
1M
1(
#2990000
b1011 !
18
1N
1)
#3000000
b1111 !
b1101 !
b1100 !
08
03
16
0C
1<
0N
0)
1L
0M
0(
1'
#3010000
b1101 !
18
1N
1)
#3020000
b1111 !
b1110 !
08
13
1C
0N
0)
1M
1(
