week_03/simulation/qsim/week_03.msim.vcd
$comment
	File created using the following command:
		vcd file week_03.msim.vcd -direction
$end
$date
	Thu Oct 12 17:05:39 2023
$end
$version
	ModelSim Version 2020.1
$end
$timescale
	1ps
$end

$scope module week_03_vlg_vec_tst $end
$var reg 4 ! KEY [3:0] $end
$var wire 1 " LED [2] $end
$var wire 1 # LED [1] $end
$var wire 1 $ LED [0] $end

$scope module i1 $end
$var wire 1 % gnd $end
$var wire 1 & vcc $end
$var wire 1 ' unknown $end
$var tri1 1 ( devclrn $end
$var tri1 1 ) devpor $end
$var tri1 1 * devoe $end
$var wire 1 + ~QUARTUS_CREATED_GND~I_combout $end
$var wire 1 , KEY[2]~input_o $end
$var wire 1 - KEY[0]~input_o $end
$var wire 1 . KEY[1]~input_o $end
$var wire 1 / KEY[3]~input_o $end
$var wire 1 0 inst|inst2~combout $end
$var wire 1 1 inst|inst1|inst~combout $end
$var wire 1 2 inst5|inst~combout $end
$upscope $end
$upscope $end
$enddefinitions $end
#0
$dumpvars
b1111 !
0$
0#
0"
0%
1&
x'
1(
1)
1*
0+
1,
1-
1.
1/
00
11
02
$end
#30000
b111 !
b11 !
b1 !
b0 !
0-
0.
0,
0/
01
10
1"
1#
#60000
b1 !
1-
11
12
1$
0#
#90000
b11 !
b10 !
0-
1.
02
0$
#120000
b11 !
1-
01
12
00
0"
1$
1#
#150000
b111 !
b101 !
b100 !
0-
0.
1,
11
10
1"
0#
#180000
b101 !
1-
02
0$
#210000
b111 !
b110 !
0-
1.
01
00
12
1$
0"
1#
#240000
b111 !
1-
02
0$
#270000
b1111 !
b1011 !
b1001 !
b1000 !
0-
0.
0,
1/
11
10
1"
0#
#300000
b1001 !
1-
01
12
00
0"
1$
1#
#330000
b1011 !
b1010 !
0-
1.
02
0$
#360000
b1011 !
1-
11
12
1$
0#
#390000
b1111 !
b1101 !
b1100 !
0-
0.
1,
01
1#
#420000
b1101 !
1-
02
0$
#450000
b1111 !
b1110 !
0-
1.
11
12
1$
0#
#480000
b1111 !
1-
02
0$
#510000
b111 !
b11 !
b1 !
b0 !
0-
0.
0,
0/
01
10
1"
1#
#540000
b1 !
1-
11
12
1$
0#
#570000
b11 !
b10 !
0-
1.
02
0$
#600000
b11 !
1-
01
12
00
0"
1$
1#
#630000
b111 !
b101 !
b100 !
0-
0.
1,
11
10
1"
0#
#660000
b101 !
1-
02
0$
#690000
b111 !
b110 !
0-
1.
01
00
12
1$
0"
1#
#720000
b111 !
1-
02
0$
#750000
b1111 !
b1011 !
b1001 !
b1000 !
0-
0.
0,
1/
11
10
1"
0#
#780000
b1001 !
1-
01
12
00
0"
1$
1#
#810000
b1011 !
b1010 !
0-
1.
02
0$
#840000
b1011 !
1-
11
12
1$
0#
#870000
b1111 !
b1101 !
b1100 !
0-
0.
1,
01
1#
#900000
b1101 !
1-
02
0$
#930000
b1111 !
b1110 !
0-
1.
11
12
1$
0#
#960000
b1111 !
1-
02
0$
#990000
b111 !
b11 !
b1 !
b0 !
0-
0.
0,
0/
01
10
1"
1#
